c,Tasa de cambio representativa del mercado (TRM)
01/07/2015,2598.68
02/07/2015,2626.80
03/07/2015,2623.91
04/07/2015,2642.97
05/07/2015,2642.97
06/07/2015,2642.97
07/07/2015,2665.41
08/07/2015,2690.15
09/07/2015,2690.79
10/07/2015,2670.79
11/07/2015,2667.37
12/07/2015,2667.37
13/07/2015,2667.37
14/07/2015,2693.54
15/07/2015,2688.20
16/07/2015,2713.04
17/07/2015,2727.23
18/07/2015,2751.88
19/07/2015,2751.88
20/07/2015,2751.88
21/07/2015,2751.88
22/07/2015,2765.10
23/07/2015,2790.26
24/07/2015,2807.36
25/07/2015,2857.46
26/07/2015,2857.46
27/07/2015,2857.46
28/07/2015,2854.13
29/07/2015,2855.44
30/07/2015,2855.32
31/07/2015,2866.04
01/08/2015,2862.51
02/08/2015,2862.51
03/08/2015,2862.51
04/08/2015,2902.98
05/08/2015,2906.95
06/08/2015,2945.97
07/08/2015,2955.31
08/08/2015,2955.31
09/08/2015,2955.31
10/08/2015,2955.31
11/08/2015,2913.45
12/08/2015,2943.97
13/08/2015,2937.63
14/08/2015,2966.12
15/08/2015,2983.12
16/08/2015,2983.12
17/08/2015,2983.12
18/08/2015,2983.12
19/08/2015,3003.35
20/08/2015,3027.20
21/08/2015,3053.65
22/08/2015,3102.60
23/08/2015,3102.60
24/08/2015,3102.60
25/08/2015,3208.37
26/08/2015,3194.24
27/08/2015,3238.51
28/08/2015,3195.47
29/08/2015,3101.10
30/08/2015,3101.10
31/08/2015,3101.10
01/09/2015,3079.97
02/09/2015,3093.64
03/09/2015,3142.34
04/09/2015,3119.93
05/09/2015,3113.55
06/09/2015,3113.55
07/09/2015,3113.55
08/09/2015,3113.55
09/09/2015,3138.46
10/09/2015,3105.40
11/09/2015,3080.57
12/09/2015,3012.96
13/09/2015,3012.96
14/09/2015,3012.96
15/09/2015,3032.59
16/09/2015,3025.28
17/09/2015,2989.04
18/09/2015,2975.13
19/09/2015,2984.90
20/09/2015,2984.90
21/09/2015,2984.90
22/09/2015,3001.68
23/09/2015,3065.74
24/09/2015,3099.28
25/09/2015,3135.17
26/09/2015,3080.44
27/09/2015,3080.44
28/09/2015,3080.44
29/09/2015,3096.98
30/09/2015,3121.94
01/10/2015,3086.75
02/10/2015,3061.85
03/10/2015,3034.90
04/10/2015,3034.90
05/10/2015,3034.90
06/10/2015,2971.15
07/10/2015,2913.74
08/10/2015,2891.91
09/10/2015,2887.21
10/10/2015,2855.74
11/10/2015,2855.74
12/10/2015,2855.74
13/10/2015,2855.74
14/10/2015,2910.70
15/10/2015,2928.69
16/10/2015,2908.87
17/10/2015,2879.89
18/10/2015,2879.89
19/10/2015,2879.89
20/10/2015,2912.99
21/10/2015,2929.19
22/10/2015,2966.68
23/10/2015,2925.36
24/10/2015,2912.08
25/10/2015,2912.08
26/10/2015,2912.08
27/10/2015,2918.21
28/10/2015,2950.87
29/10/2015,2926.75
30/10/2015,2921.32
31/10/2015,2897.83
01/11/2015,2897.83
02/11/2015,2897.83
03/11/2015,2897.83
04/11/2015,2825.25
05/11/2015,2819.63
06/11/2015,2853.32
07/11/2015,2896.19
08/11/2015,2896.19
09/11/2015,2896.19
10/11/2015,2921.15
11/11/2015,2935.86
12/11/2015,2935.86
13/11/2015,3009.36
14/11/2015,3073.23
15/11/2015,3073.23
16/11/2015,3073.23
17/11/2015,3073.23
18/11/2015,3069.24
19/11/2015,3108.70
20/11/2015,3082.04
21/11/2015,3047.31
22/11/2015,3047.31
23/11/2015,3047.31
24/11/2015,3086.82
25/11/2015,3074.35
26/11/2015,3099.75
27/11/2015,3099.75
28/11/2015,3101.10
29/11/2015,3101.10
30/11/2015,3101.10
01/12/2015,3142.11
02/12/2015,3131.95
03/12/2015,3166.67
04/12/2015,3149.12
05/12/2015,3179.22
06/12/2015,3179.22
07/12/2015,3179.22
08/12/2015,3287.03
09/12/2015,3287.03
10/12/2015,3294.02
11/12/2015,3259.56
12/12/2015,3299.36
13/12/2015,3299.36
14/12/2015,3299.36
15/12/2015,3356.00
16/12/2015,3328.08
17/12/2015,3317.72
18/12/2015,3333.37
19/12/2015,3337.68
20/12/2015,3337.68
21/12/2015,3337.68
22/12/2015,3332.70
23/12/2015,3307.24
24/12/2015,3255.19
25/12/2015,3172.03
26/12/2015,3172.03
27/12/2015,3172.03
28/12/2015,3172.03
29/12/2015,3180.87
30/12/2015,3155.22
31/12/2015,3149.47
01/01/2016,3149.47
02/01/2016,3149.47
03/01/2016,3149.47
04/01/2016,3149.47
05/01/2016,3213.24
06/01/2016,3203.86
07/01/2016,3250.69
08/01/2016,3287.28
09/01/2016,3268.37
10/01/2016,3268.37
11/01/2016,3268.37
12/01/2016,3268.37
13/01/2016,3246.51
14/01/2016,3235.45
15/01/2016,3240.71
16/01/2016,3293.94
17/01/2016,3293.94
18/01/2016,3293.94
19/01/2016,3293.94
20/01/2016,3297.46
21/01/2016,3357.67
22/01/2016,3368.49
23/01/2016,3281.74
24/01/2016,3281.74
25/01/2016,3281.74
26/01/2016,3362.38
27/01/2016,3375.80
28/01/2016,3366.63
29/01/2016,3302.92
30/01/2016,3287.31
31/01/2016,3287.31
